ExifTool Version Number         : 12.30
File Name                       : spaghetti.png
Directory                       : .
File Size                       : 194 KiB
File Modification Date/Time     : 2021:09:14 14:02:29-07:00
File Access Date/Time           : 2021:09:14 15:53:19-07:00
File Inode Change Date/Time     : 2021:09:14 14:03:01-07:00
File Permissions                : -rw-r--r--
File Type                       : PNG
File Type Extension             : png
MIME Type                       : image/png
Image Width                     : 520
Image Height                    : 300
Bit Depth                       : 8
Color Type                      : RGB with Alpha
Compression                     : Deflate/Inflate
Filter                          : Adaptive
Interlace                       : Noninterlaced
Background Color                : 255 255 255
Warning                         : [minor] Text/EXIF chunk(s) found after PNG IDAT (may be ignored by some readers)
Software                        : Adobe ImageReady
Image Size                      : 520x300
Megapixels                      : 0.156
